{
  "type": "service_account",
  "project_id": "aqueous-abbey-373714",
  "private_key_id": "adf095fe88b48688c01969b1b6b0bc7f95397733",
  "private_key": "-----BEGIN PRIVATE KEY-----\nMIIEvwIBADANBgkqhkiG9w0BAQEFAASCBKkwggSlAgEAAoIBAQDGqi4yw/7X2pCH\nVnGOiCABxF1uigjaS0kUoH96OeaQ4a+mX2hsHB72Ad65z8ln0SC/2/AFJ9jzzb+3\nvjtP8GUJagiSzpMhwMs5yHtZwRAYEWsYYks4CkbPmoWN9VuQG+RT4MseP9kT9++q\nDQefpjsF/OKp06OLV/7eInsQ+UCfrZBU0FEthbupuDWaZ+FV0v5qOh69CrdGfKni\nwUDuQTPx7wCIRRduFc5fGQy9v5jXwczYduEdiqmGtZEj021j0eRwiLIu3AzDvCIA\ndbyTkJVT7ZqjOMHVT/iTuWskeB6KcGHy7kqcICfgf9bCI9U1rnP1k/DqOyjzUSjH\nW4TMTcnZAgMBAAECggEAG9resWWDxPYzT5aSQ37YpgbHZulZxmnJ7Gd4mEWoC2Zp\nf3VfKdFjkfC/LuRwg+rxoZUP+VkV9VFC8Vtt6450TDaezx7ByHjExexTR0lnnUhL\n8NZPX6MpPJCY60ect/8BK7WYJTykjkU0SG6dRAhFvFgx28f95VrINJM3GDEqm3i2\nRc5bvHfScrJQjEAzL45PtUDQ3sq6EdXRof6sGRQz2fOqScbU2RX3Xb7wXD9fFEp7\nqyZRBBqhsEz+hdJksVQInVxjeec8WetPOWoTMf/Fo4gT6602QvupZ8Z1CeolJ6de\nv+uliSRhjKsjfzEySz20W/BtLPBHY72uDEjOFFnitQKBgQDkmTuZVOAlc+ULI8Uo\nnfitVQNYHqsAtV/TjtOgFi712YJrBJbhV+2hxenEkCKw07fcnp8a76FBMaR73Vah\nP4v3ED9wA/6J3ZU4FP86OK4sx71H8kffQf34tSwNYWSIsSOn/Fkh4A3oEBM/K+5y\nc4autHIQhPmdXmUXbn+JzsZR2wKBgQDeemZ02WlNJgHhGAg6oiLwVt0tNTdD4cTJ\n2h5S7aBFjrNlXGxcs7T9qc7p0C4SkQUCJld6HImMlEndj8mz8Iu+ltWzxRpZYlvQ\nk061gLfnsH9Y92TIKMnBl2c0Pbx+tAl9jlJeEDyhy1WoxEvpFZEBsP5oiMOck03q\ndNWQCKVjWwKBgQCXy2CV+pQ0inanJQOAaxV8E5164DJw7/9Hvemsvc5FFj/RzGRc\nEkULTR5jlcpTXOMULog8HK8ZWVt9nIYv4MCSOEnHmf9lkKvLZ7Xq9URDHAcGRU2Q\nZIO+qJ8t62QUmHuyypBtPBg/5pzBL+zQNwJR9CRh78rIwquiGY+69IEgTQKBgQDR\nZRzXr+VnYnV0Wb0tCnud//POX/7zGiSw42WVIeiubyA0L6giHFYmRdPkxzcF7I5t\nNo8w9HkV4mAfc/0hKi8tJCRhPguNw4CtMGhtdoghPkKuBrNJnPJADnNpfQ3Tpzoj\nfXfS5q9ajNnDrXXRHKZNlDvvQYHy9cXo/Swgk7KubwKBgQC/62Pv7ng9lddWqeJB\nqJ8MLG/bHU6zppFFdAQPJxDKgxwT2w0WK7AUnC5TDaVuWlQnRGB3310pEgwhfV9x\nznlAcE/AxwjQBphAWs7ySJ0cDHo0k7htFRBelQdAI+azEJP3+ZtyJprGblmPi/Pw\n79MKKk1cufCUTm+fxTfXbzLSrA==\n-----END PRIVATE KEY-----\n",
  "client_email": "app-dev-01@aqueous-abbey-373714.iam.gserviceaccount.com",
  "client_id": "115705086339888005819",
  "auth_uri": "https://accounts.google.com/o/oauth2/auth",
  "token_uri": "https://oauth2.googleapis.com/token",
  "auth_provider_x509_cert_url": "https://www.googleapis.com/oauth2/v1/certs",
  "client_x509_cert_url": "https://www.googleapis.com/robot/v1/metadata/x509/app-dev-01%40aqueous-abbey-373714.iam.gserviceaccount.com"
}
